…
Sorting data 
======

- Using the *dplyr* package, we can arrange our data according to student grade:


```r
library(dplyr)
arrange(studentData, grades)
```

```
# A tibble: 100 x 6
      ID route    grades hoursOfStudy hasDepdendants satisfactionLevel
   <dbl> <fct>     <dbl>        <dbl> <fct>          <ord>            
 1    64 PartTime     35            7 No             Somewhat         
 2    93 PartTime     36            8 No             Somewhat         
 3    25 FullTime     37            7 Yes            Not at all       
 4    39 FullTime     37            2 Yes            Somewhat         
 5    46 FullTime     37            6 Yes            Very             
 6    61 PartTime     38            2 No             Somewhat         
 7     8 FullTime     39            6 Yes            Somewhat         
 8    31 FullTime     39            4 Yes            Somewhat         
 9    58 PartTime     39            7 No             Very             
10    67 PartTime     40            6 No             Not at all       
# ... with 90 more rows
```

```r
arrange(studentData, desc(grades)) # Arrange in descending order
```

```
# A tibble: 100 x 6
      ID route    grades hoursOfStudy hasDepdendants satisfactionLevel
   <dbl> <fct>     <dbl>        <dbl> <fct>          <ord>            
 1     9 FullTime     85            2 Yes            Not at all       
 2    43 FullTime     85            0 Yes            Somewhat         
 3    59 PartTime     85            4 No             Very             
 4    76 PartTime     83            6 No             Not at all       
 5    48 FullTime     82            6 Yes            Not at all       
 6    68 PartTime     82            6 No             Very             
 7    71 PartTime     82            4 No             Somewhat         
 8    12 FullTime     81            8 Yes            Not at all       
 9    74 PartTime     81            5 No             Very             
10     6 FullTime     80            3 Yes            Somewhat         
# ... with 90 more rows
```
…
Create new variables from data
======

We can create new variables from existing data using __mutuate__

```r
library(dplyr)

studentData %>% mutate(passFail = ifelse(grades > 40, "Pass", "Fail"))
```

```
# A tibble: 100 x 7
      ID route    grades hoursOfStudy hasDepdendants satisfactionLevel passFail
   <dbl> <fct>     <dbl>        <dbl> <fct>          <ord>             <chr>   
 1     1 FullTime     56            3 Yes            Very              Pass    
 2     2 FullTime     47            1 Yes            Not at all        Pass    
 3     3 FullTime     72            8 Yes            Not at all        Pass    
 4     4 FullTime     79            0 Yes            Very              Pass    
 5     5 FullTime     79            4 Yes            Somewhat          Pass    
 6     6 FullTime     80            3 Yes            Somewhat          Pass    
 7     7 FullTime     76            1 Yes            Very              Pass    
 8     8 FullTime     39            6 Yes            Somewhat          Fail    
 9     9 FullTime     85            2 Yes            Not at all        Pass    
10    10 FullTime     41            5 Yes            Somewhat          Pass    
# ... with 90 more rows
```
…
