Topic 17 Introduction to R and R studio – Tasks: | Importing and working with data in RStudio
…
3

Yes

Somewhat

17.12 Sorting data

Using the dplyr package, we can arrange our data according to student grade:

library(dplyr)
arrange(studentData, grades)

## # A tibble: 100 × 6
##       ID route   grades hours…¹ hasDe…²
##    <dbl> <fct>    <dbl>   <dbl> <fct>  
##  1    64 PartTi…     35       7 No     
##  2    93 PartTi…     36       8 No     
##  3    25 FullTi…     37       7 Yes    
##  4    39 FullTi…     37       2 Yes    
##  5    46 FullTi…     37       6 Yes    
##  6    61 PartTi…     38       2 No     
##  7     8 FullTi…     39       6 Yes    
##  8    31 FullTi…     39       4 Yes    
##  9    58 PartTi…     39       7 No     
## 10    67 PartTi…     40       6 No     
## # … with 90 more rows, 1 more
## #   variable: satisfactionLevel <ord>,
## #   and abbreviated variable names
## #   ¹​hoursOfStudy, ²​hasDepdendants
## # ℹ Use `print(n = ...)` to see more rows, and `colnames()` to see all variable names

arrange(studentData, desc(grades)) # Arrange in descending order

## # A tibble: 100 × 6
##       ID route   grades hours…¹ hasDe…²
##    <dbl> <fct>    <dbl>   <dbl> <fct>  
##  1     9 FullTi…     85       2 Yes    
##  2    43 FullTi…     85       0 Yes    
##  3    59 PartTi…     85       4 No     
##  4    76 PartTi…     83       6 No     
##  5    48 FullTi…     82       6 Yes    
##  6    68 PartTi…     82       6 No     
##  7    71 PartTi…     82       4 No     
##  8    12 FullTi…     81       8 Yes    
##  9    74 PartTi…     81       5 No     
## 10     6 FullTi…     80       3 Yes    
## # … with 90 more rows, 1 more
## #   variable: satisfactionLevel <ord>,
## #   and abbreviated variable names
## #   ¹​hoursOfStudy, ²​hasDepdendants
## # ℹ Use `print(n = ...)` to see more rows, and `colnames()` to see all variable names
…
## # A tibble: 2 × 3
##   hasDepdendants  mean    sd
##   <fct>          <dbl> <dbl>
## 1 No              62.4  14.3
## 2 Yes             62.3  14.8

17.18 Create new variables from data

We can create new variables from existing data using mutuate

library(dplyr)

studentData %>% mutate(passFail = ifelse(grades > 40, "Pass", "Fail"))

## # A tibble: 100 × 7
##       ID route   grades hours…¹ hasDe…²
##    <dbl> <fct>    <dbl>   <dbl> <fct>  
##  1     1 FullTi…     56       3 Yes    
##  2     2 FullTi…     47       1 Yes    
##  3     3 FullTi…     72       8 Yes    
##  4     4 FullTi…     79       0 Yes    
##  5     5 FullTi…     79       4 Yes    
##  6     6 FullTi…     80       3 Yes    
##  7     7 FullTi…     76       1 Yes    
##  8     8 FullTi…     39       6 Yes    
##  9     9 FullTi…     85       2 Yes    
## 10    10 FullTi…     41       5 Yes    
## # … with 90 more rows, 2 more
## #   variables:
## #   satisfactionLevel <ord>,
## #   passFail <chr>, and abbreviated
## #   variable names ¹​hoursOfStudy,
## #   ²​hasDepdendants
## # ℹ Use `print(n = ...)` to see more rows, and `colnames()` to see all variable names
